{
    "tracks": [
        {
            "track1": {"title": ""}
        }
    ],

    "speakers": [
        {
            "slug": "richard",
            "name": "Richard ‘RichiH’ Hartmann",
            "bio": "",
            "affiliation": "Prometheus core team member and Grafana Labs Director",
            "image_url": "https://grafana.com/static/img/about/richard_hartmann.jpg",
            "featured": true,
            "social_media": 
                {
                    "twitter": "", 
                    "website": "", 
                    "medium": "", 
                    "linkedin": "", 
                    "others": ""
                }
        },
        {
            "slug": "priyankasharma",
            "name": "Priyanka Sharma",
            "bio": "",
            "affiliation": "CNCF board member and GitLab Director",
            "image_url": "https://about.gitlab.com/images/team/priyankasharma-crop.jpg",
            "featured": true,
            "social_media": 
                {
                    "twitter": "", 
                    "website": "", 
                    "medium": "", 
                    "linkedin": "", 
                    "others": ""
                }
        },
        {
            "slug": "puja",
            "name": "Puja Abbasi",
            "bio": "",
            "affiliation": "K8s Contributor Summit organizer and GiantSwarm Developer Advocate",
            "image_url": "https://media-exp1.licdn.com/dms/image/C5603AQGNqOtc7SP49g/profile-displayphoto-shrink_800_800/0?e=1590019200&v=beta&t=wVyw6n0wSM9n8BQ4BGzqRvzqYFCWq3LNr6qsI-5495Y",
            "featured": true,
            "social_media": 
                {
                    "twitter": "", 
                    "website": "", 
                    "medium": "", 
                    "linkedin": "", 
                    "others": ""
                }
        },
        {
            "slug": "chris",
            "name": "Chris Aniszczyk",
            "bio": "",
            "affiliation": "CNCF CTO",
            "image_url": "https://media-exp1.licdn.com/dms/image/C5103AQEnhJmkxKxY7A/profile-displayphoto-shrink_200_200/0?e=1590019200&v=beta&t=x0nvwYyV5q3W-6mQE87G2nQZo5F6P30r3BL5CgEVlik",
            "featured": true,
            "social_media": 
                {
                    "twitter": "", 
                    "website": "", 
                    "medium": "", 
                    "linkedin": "", 
                    "others": ""
                }
        },
        {
            "slug": "eduardosilva",
            "name": "Eduardo Silva",
            "bio": "",
            "affiliation": "Fluentd Maintainer and ARM Principal Engineer",
            "image_url": "https://media-exp1.licdn.com/dms/image/C4E03AQGvmBYfJ9xYAg/profile-displayphoto-shrink_800_800/0?e=1590019200&v=beta&t=YwNPzdrn6BDBJgwUtB3NSACG73CVHnSnVa3ioy39cU0",
            "featured": true,
            "social_media": 
                {
                    "twitter": "", 
                    "website": "", 
                    "medium": "", 
                    "linkedin": "", 
                    "others": ""
                }
        },
        {
            "slug": "sugu",
            "name": "Sugu Sougoumarane",
            "bio": "",
            "affiliation": "Vitess Maintainer and PlanetScale CTO",
            "image_url": "https://media-exp1.licdn.com/dms/image/C4D03AQEA3qVvQT2WSQ/profile-displayphoto-shrink_800_800/0?e=1590019200&v=beta&t=9UEtXlwQBBnZ6qqnxEPUhi32XLgGuZPH4tBvjgrMzw8",
            "featured": false,
            "social_media": 
                {
                    "twitter": "", 
                    "website": "", 
                    "medium": "", 
                    "linkedin": "", 
                    "others": ""
                }
        },
        {
            "slug": "markcoleman",
            "name": "Mark Coleman",
            "bio": "",
            "affiliation": "Marketing Chairperson - Cloud Native Computing Foundation",
            "image_url": "https://media-exp1.licdn.com/dms/image/C4E03AQEmh8IWhVpWdg/profile-displayphoto-shrink_200_200/0?e=1590624000&v=beta&t=-4DxhyV9Jz-JsXNsJIi-6c4uN0lMvhBK_xC9-4zouSI",
            "featured": false,
            "social_media": 
                {
                    "twitter": "", 
                    "website": "", 
                    "medium": "", 
                    "linkedin": "", 
                    "others": ""
                }
        },
        {
            "slug": "justincappos",
            "name": "Justin Cappos",
            "bio": "",
            "affiliation": "Professor  of Computer Science and Engineering, New York University",
            "image_url": "https://avatars0.githubusercontent.com/u/857871?s=460&u=38d673f6bb337d357c38b3539ab4b1611689bea5&v=4",
            "featured": false,
            "social_media": 
                {
                    "twitter": "", 
                    "website": "", 
                    "medium": "", 
                    "linkedin": "", 
                    "others": ""
                }
        }
        ,
        {
            "slug": "benkochie",
            "name": "Ben Kochie",
            "bio": "",
            "affiliation": "Senior Site Reliability Engineer at GitLab & Maintainer, Prometheus",
            "image_url": "https://assets.gitlab-static.net/uploads/-/system/user/avatar/928230/avatar.png?width=90",
            "featured": false,
            "social_media": 
                {
                    "twitter": "", 
                    "website": "", 
                    "medium": "", 
                    "linkedin": "", 
                    "others": ""
                }
        }
        ,
        {
            "slug": "mfriedrich",
            "name": "Michael Friedrich",
            "bio": "",
            "affiliation": "Technical Evangelist at GitLab",
            "image_url": "https://www.gravatar.com/avatar/65b96fbea5230f9da856263754bc85a2?s=250&d=mm&r=x",
            "featured": false,
            "social_media": 
                {
                    "twitter": "", 
                    "website": "", 
                    "medium": "", 
                    "linkedin": "", 
                    "others": ""
                }
        }
         ,
        {
            "slug": "jbelamric",
            "name": "John Belamaric",
            "bio": "",
            "affiliation": "Senior Staff Software Engineer at Google",
            "image_url": "https://media-exp1.licdn.com/dms/image/C4E03AQFFXP9jLA9PBw/profile-displayphoto-shrink_200_200/0?e=1590624000&v=beta&t=Fz7MWDBrMRwi56-XTrVZfKCyrapd9wOtPV6RjQJ3sKw",
            "featured": false,
            "social_media": 
                {
                    "twitter": "", 
                    "website": "", 
                    "medium": "", 
                    "linkedin": "", 
                    "others": ""
                }
        } ,
        {
            "slug": "pestes",
            "name": "Phil Estes",
            "bio": "",
            "affiliation": "Distinguished Engineer at IBM ",
            "image_url": "https://pbs.twimg.com/profile_images/1216121585536569344/uA1mRoU2_400x400.jpg",
            "featured": false,
            "social_media": 
                {
                    "twitter": "", 
                    "website": "", 
                    "medium": "", 
                    "linkedin": "", 
                    "others": ""
                }
        },
        {
            "slug": "maxk",
            "name": "Max Körbächer",
            "bio": "",
            "affiliation": "Kubernetes & Cloud Native Advocate",
            "image_url": "https://media-exp1.licdn.com/dms/image/C4D03AQFOSplJ0OjkJA/profile-displayphoto-shrink_800_800/0?e=1590624000&v=beta&t=1rU-uZrc0cWUJnYF8gAiSpYMXMfuB3bziW_7ngiP1GY",
            "featured": false,
            "social_media": 
                {
                    "twitter": "", 
                    "website": "", 
                    "medium": "", 
                    "linkedin": "", 
                    "others": ""
                }
        },
        {
            "slug": "yurishkuro",
            "name": "Yuri Shkuro",
            "bio": "",
            "affiliation": "Creator of Jaeger",
            "image_url": "https://avatars1.githubusercontent.com/u/3523016?s=460&u=543cac5c83237325d63bab776c01fe7ecb400d8c&v=4",
            "featured": false,
            "social_media": 
                {
                    "twitter": "", 
                    "website": "", 
                    "medium": "", 
                    "linkedin": "", 
                    "others": ""
                }
        },
        {
            "slug": "saugustus",
            "name": "Stephen Augustus",
            "bio": "",
            "affiliation": "Lead, Cloud Native Tools & Advocacy at VMware and Kubernetes Chair",
            "image_url": "https://media-exp1.licdn.com/dms/image/C4E03AQE2Yk6Luz0YCg/profile-displayphoto-shrink_200_200/0?e=1590624000&v=beta&t=rEmszbC9fWI8c4_odeqfdj3Y_I516mnVl-fBY3hQYXk",
            "featured": false,
            "social_media": 
                {
                    "twitter": "", 
                    "website": "", 
                    "medium": "", 
                    "linkedin": "", 
                    "others": ""
                }
        },
        {
            "slug": "tdolezal",
            "name": "Taylor Dolezal",
            "bio": "",
            "affiliation": "Lead, Site Reliability Engineer & CNCF Ambassador",
            "image_url": "https://media-exp1.licdn.com/dms/image/C4D03AQG3POqpkje-Pg/profile-displayphoto-shrink_800_800/0?e=1590624000&v=beta&t=6ZGjDo5w3sdkvaXRhjY7pG1HaQDUX8LEhVeMYorVq1g",
            "featured": false,
            "social_media": 
                {
                    "twitter": "", 
                    "website": "", 
                    "medium": "", 
                    "linkedin": "", 
                    "others": ""
                }
        },
        {
            "slug": "mpalladino",
            "name": "Marco Palladino",
            "bio": "",
            "affiliation": "CTO and Co-founder, Kong",
            "image_url": "https://twitter.com/subnetmarco/photo",
            "featured": false,
            "social_media":
                {
                    "twitter": "",
                    "website": "",
                    "medium": "",
                    "linkedin": "",
                    "others": ""
                }
        },
        {
            "slug": "kmcmahon",
            "name": "Kim McMahon",
            "bio": "",
            "affiliation": "Director of Marketing, CNCF",
              "image_url": "https://pbs.twimg.com/profile_images/954076414835269632/u6LPujKU_400x400.jpg",
                    "featured": false,
                    "social_media":
                        {
                            "twitter": "",
                            "website": "",
                            "medium": "",
                            "linkedin": "",
                            "others": ""
                        }
        },
        {
              "slug": "kbarnard",
              "name": "Kaitlyn Barnard",
              "bio": "",
              "affiliation": "Director of Marketing, CNCF",
              "image_url": "https://pbs.twimg.com/profile_images/854547353809821696/CkDP5Iru_400x400.jpg",
              "featured": false,
              "social_media":
                        {
                            "twitter": "",
                            "website": "",
                            "medium": "",
                            "linkedin": "",
                            "others": ""
                        }
        }

        
    ],
    "talks": [
        {
            "title": "",
            "speaker_slug": "",
            "description": "",
            "utc_start_time": "",
            "duraation_mins": "",
            "track": "track1",
            "slide_url": ""
        }
    ]
}
